[
	{
		"type": "title",
		"content": ["Présentation"]
	},
	{
		"type": "block",
		"content": [
			"Polymorph est un studio de recherche et création graphique basé a Bruxelles.",
			"Notre expérience en matière de développement logiciel nous permet de nous adapter facilement à des demandes variées, que ce soit pour le web, le print, les installations interactives, le design d'exposition, les applications ou le jeu vidéo.",
			"Notre but est de trouver une harmonie entre la technique et l'artistique et de la mettre au service des projets."
		]
	}
]
