{
	"lang": [
		{
			"name": "fr",
			"content": [
				{
					"type": "title",
					"content": ["Présentation"]
				},
				{
					"type": "block",
					"content": [
						"Polymorph est un studio de recherche et création graphique basé a Bruxelles.",
						"Notre expérience en matière de développement logiciel nous permet de nous adapter facilement à des demandes variées, que ce soit pour le web, le print, les installations interactives, le design d'exposition, les applications ou le jeu vidéo.",
						"Notre but est de trouver une harmonie entre la technique et l'artistique et de la mettre au service des projets."
					]
				}
			]
		},
		{
			"name": "nl",
			"content": [
				{
					"type": "title",
					"content": ["Presentatie"]
				},
				{
					"type": "block",
					"content": [
						"Polymorph is een onderzoeks- en grafisch ontwerpbureau gevestigd in Brussel.",
						"Onze ervaring in softwareontwikkeling stelt ons in staat om ons gemakkelijk aan te passen aan een verscheidenheid van verzoeken, of het nu gaat om het web, print, interactieve installaties, tentoonstellingsontwerp, toepassingen of videogames.",
						"Ons doel is om een harmonie te vinden tussen het technische en het artistieke en dit ten dienste te stellen van de projecten."
					]
				}
			]
		},
		{
			"name": "en",
			"content": [
				{
					"type": "title",
					"content": ["Presentation"]
				},
				{
					"type": "block",
					"content": [
						"Polymorph is a research and graphic design studio based in Brussels.",
						"Our experience in software development allows us to easily adapt to a variety of demands, be it for the web, print, interactive installations, exhibition design, applications or video games.",
						"Our aim is to find a harmony between the technical and the artistic and to put it at the service of the projects."
					]
				}
			]
		}
	]
}
