[
	{
		"type": "title",
		"content": ["What we can do"]
	},
	{
		"type": "block",
		"content": [
			"<h3>Design<h3>",
			"logo, print, web, typography, 2D / 3D visuals",
			"<h3>Development<h3>",
			"procedural generation, video games, web & mobile applications, bots & application servers",
			"<h3>Languages<h3>",
			"Javascript, Python, C / C++ / C#, OpenGL / WebGL, PHP, Java"
		]
	}
]
