{
	"intro": ["is", "een groep van", "ontwerpers", "kunstenaars", "die gebruik maken van", "programmering", "als", "een instrument", "voor grafisch onderzoek" ],
	"projects": "Projects",
	"about": "Over ons",
	"contact": "Contact",
	"address": "Polymorph, Paul Delvaux straat, 3, 1000 Brussels",
	"policy": "Deze website gebruikt geen cookie of tracker!"
}
