[
	{
		"type": "title",
		"content": [" Eclectic Tech Carnival "]
	},
	{
		"type": "desc",
		"content": [
			"Flyers and posters for the 2018 and 2019 editions of the tech-feminist event<a href=\"https://www.eclectictechcarnival.org/\">Eclectic Tech Carnival</a>.",
			"2018 edition : typefaces designed with <a href=\"https://en.wikipedia.org/wiki/MetaPost\">Metapost</a>",
			"2019 edition : layout made in Python with <a href=\"https://xxyxyz.org/flat/\">Flat</a>"
		]
	}
]
