[
	{
		"type": "title",
		"content": ["Tuning Game"]
	},
	{
		"type": "desc",
		"content": [
			"This game is part of a publishing project of Contredanse about the US choreographer Lisa Nelson and her dance practice. It is a virtual version of *tuning scores*, an improvisation technique Lisa has built over the years.",
			"Made with Godot Engine, standard physics engine and applicative server allowing online multiplayer game, performance storage and broadcasting.",
			"Under development, expected release date: 2021",
			"coordination: <a href=\"https://contredanse.org/\">Contredanse ASBL</a>",
			"choreography: <a href=\"https://en.wikipedia.org/wiki/Lisa_Nelson\">Lisa Nelson</a>"
		]
	}
]
