[
	{
		"type": "title",
		"content": ["Tuning Game"]
	},
	{
		"type": "desc",
		"content": [
			"Dit spel maakt deel uit van een publicatieproject van Contredanse over de Amerikaanse choreografe Lisa Nelson en haar danspraktijk. Het is een virtuele versie van *tuning scores*, een improvisatietechniek die Lisa in de loop der jaren heeft opgebouwd.",
			"Gebouwd met Godot Engine, standaard physics engine en applicatieserver die online multiplayer, stocking en performance broadcasting mogelijk maakt",
			"In ontwikkeling, verwachte verschijningsdatum: 2021",
			"Coördinatie: <a href=\"https://contredanse.org/\">Contredanse ASBL</a>",
			"Choreografie: <a href=\"https://en.wikipedia.org/wiki/Lisa_Nelson\">Lisa Nelson</a>"
		]
	}
]
