[
	{
		"type": "title",
		"content": ["Pink Screens 2019 trailer"]
	},
	{
		"type": "desc",
		"content": [
			"3D-animatie voor de aanhangwagen van <a href=\"https://pinkscreens.org\">Pink Screens</a> 2019, het Brusselse queer filmfestival",
			"Directeur: <a href=\"https://vimeo.com/seeyoustudio\">Pablo Diartinez</a>.",
			"Gemaakt met <a href=\"https://blender.org/\">Blender</a>.",
			"<a href=\"https://vimeo.com/365967177\">video</a>.",
			"2019"
		]
	}
]

