[
	{
		"type": "title",
		"content": ["RESISTER!"]
	},
	{
		"type": "desc",
		"content": [
			"Affiche voor het evenement Résister! Les acteurs du champ des déviances face aux exigences gestionnaires organisé par le <a href=\"https://cvchercheurs.ulb.ac.be/Site/unite/ULB067.php\">Centre de recherches Pénalité, Sécurité & Déviances</a> et l’Ecole des sciences criminologiques Léon Cornil.",
			"opmaak met Inkscape en genereren van tandwielen in Blender",
			"archief: <a href=\"https://gitlab.com/polymorphcool/resister-poster\">gitlab</a>"
		]
	}
]
