{
	"lang": [
		{
			"name": "fr",
			"content": [
				{
					"type": "title",
					"content": ["LaSpore"]
				},
				{
					"type": "desc",
					"content": [
						"Identité graphique et site web pour l'ASBL de commissariat d'exposition LaSpore.",
						"2018"
					]
				}
			]
		},
		{
			"name": "nl",
			"content": [
				{
					"type": "title",
					"content": ["LaSpore"]
				},
				{
					"type": "desc",
					"content": [
						"Grafische identiteit en website voor de vereniging zonder winstoogmerk LaSpore.",
						"2018"
					]
				}
			]
		},
		{
			"name": "en",
			"content": [
				{
					"type": "title",
					"content": ["LaSpore"]
				},
				{
					"type": "desc",
					"content": [
						" Graphical indentity and website for the curation association LaSpore.",
						"2018"
					]
				}
			]
		}
	],
	"overlay_text": [ "L a", "S p o r e" ],
	"slideshow": [
		{
			"type":"img",
			"src": "laspore01.png"
		},
		{
			"type":"img",
			"src": "laspore02.png"
		},
		{
			"type":"img",
			"src": "laspore_mobile01.png"
		},
		{
			"type":"img",
			"src": "laspore_mobile02.png"
		}
	]
}
