[
	{
		"type": "title",
		"content": ["L'Envol des frontières"]
	},
	{
		"type": "desc",
		"content": [
			"Grafische identiteit, website en creatie van inhoud voor een tentoonstelling van de VZW <a href=\"http://envoldesfrontieres.org/\">L'Envol des frontières</a>.",
			"Familie van typografieën gemaakt voor de VZW in Javascript met <a href=\"http://paperjs.org/\">Paper.js</a>.",
			"2018-2020 "
		]
	}
]
